<?xml version='1.0' encoding='UTF-8'?>
<!-- This file was generated by dvisvgm 2.12 -->
<svg version='1.1' xmlns='http://www.w3.org/2000/svg' xmlns:xlink='http://www.w3.org/1999/xlink' width='37.601159pt' height='60.968741pt' viewBox='4.648508 107.632909 37.601159 60.968741'>
<defs>
<path id='g17-2' d='M3.230589-2.30875L1.569618-3.961416C1.469959-4.061074 1.45335-4.077684 1.386911-4.077684C1.303862-4.077684 1.220814-4.00294 1.220814-3.911587C1.220814-3.853453 1.237423-3.836843 1.328777-3.74549L2.989748-2.076214L1.328777-.406938C1.237423-.315585 1.220814-.298975 1.220814-.240841C1.220814-.149487 1.303862-.074744 1.386911-.074744C1.45335-.074744 1.469959-.091353 1.569618-.191012L3.222284-1.843678L4.941389-.124573C4.957999-.116268 5.016133-.074744 5.065962-.074744C5.16562-.074744 5.232059-.149487 5.232059-.240841C5.232059-.257451 5.232059-.29067 5.207144-.332194C5.198839-.348804 3.878367-1.652666 3.463125-2.076214L4.982913-3.596002C5.024437-3.645831 5.14901-3.753795 5.190535-3.803624C5.198839-3.820233 5.232059-3.853453 5.232059-3.911587C5.232059-4.00294 5.16562-4.077684 5.065962-4.077684C4.999523-4.077684 4.966303-4.044465 4.87495-3.953111L3.230589-2.30875Z'/>
<path id='g5-49' d='M.400498-3.317559H.460274L1.231382-3.664259C1.23736-3.670237 1.243337-3.670237 1.249315-3.670237C1.285181-3.670237 1.297136-3.616438 1.297136-3.472976V-.573848C1.297136-.263014 1.231382-.19726 .908593-.179328L.573848-.161395V.017933C1.494396 0 1.494396 0 1.560149 0C1.637858 0 1.769365 0 1.972603 .005978C2.044334 .011955 2.253549 .011955 2.49863 .017933V-.161395L2.187796-.179328C1.859029-.19726 1.799253-.263014 1.799253-.573848V-4.118555L1.715567-4.148443C1.327024-3.945205 .902615-3.765878 .358655-3.574595L.400498-3.317559Z'/>
<path id='g5-50' d='M.095641-.137484V.017933C1.21345 0 1.21345 0 1.428643 0S1.643836 0 2.797509 .017933C2.785554-.107597 2.785554-.167372 2.785554-.251059C2.785554-.328767 2.785554-.388543 2.797509-.52005C2.110087-.490162 1.835118-.484184 .729265-.460274L1.817186-1.613948C2.397011-2.229639 2.576339-2.558406 2.576339-3.006725C2.576339-3.694147 2.110087-4.118555 1.350934-4.118555C.920548-4.118555 .627646-3.999004 .334745-3.700125L.233126-2.887173H.406476L.484184-3.162142C.579826-3.508842 .795019-3.658281 1.195517-3.658281C1.709589-3.658281 2.038356-3.335492 2.038356-2.827397C2.038356-2.379078 1.787298-1.936737 1.111831-1.219427L.095641-.137484Z'/>
<path id='g5-51' d='M.257036-2.976837H.442341L.549938-3.311582C.615691-3.514819 .992279-3.718057 1.303113-3.718057C1.691656-3.718057 2.008468-3.401245 2.008468-3.024658C2.008468-2.576339 1.655791-2.199751 1.231382-2.199751C1.183562-2.199751 1.117808-2.205729 1.0401-2.211706L.950436-2.217684L.878705-1.900872L.920548-1.865006C1.147696-1.966625 1.26127-1.996513 1.422665-1.996513C1.918804-1.996513 2.205729-1.679701 2.205729-1.135741C2.205729-.526027 1.841096-.125529 1.285181-.125529C1.010212-.125529 .765131-.215193 .585803-.382565C.442341-.514072 .364633-.651557 .251059-.974346L.089664-.91457C.215193-.549938 .263014-.334745 .298879-.035866C.615691 .071731 .878705 .119552 1.099875 .119552C1.578082 .119552 2.12802-.14944 2.456787-.549938C2.660025-.795019 2.761644-1.058032 2.761644-1.338979C2.761644-1.625903 2.642092-1.876961 2.426899-2.026401C2.27746-2.133998 2.139975-2.181818 1.841096-2.235616C2.319303-2.606227 2.49863-2.881196 2.49863-3.233873C2.49863-3.765878 2.056289-4.118555 1.392777-4.118555C.986301-4.118555 .71731-4.004981 .430386-3.718057L.257036-2.976837Z'/>
<path id='g5-52' d='M1.673724-1.081943V-.633624C1.673724-.274969 1.60797-.191283 1.315068-.179328L.944458-.161395V.017933C1.739477 0 1.739477 0 1.882939 0S2.026401 0 2.82142 .017933V-.161395L2.534496-.179328C2.241594-.19726 2.175841-.274969 2.175841-.633624V-1.081943C2.528518-1.081943 2.654047-1.075965 2.82142-1.058032V-1.482441C2.540473-1.458531 2.426899-1.458531 2.337235-1.464508H2.319303H2.175841V-2.295392C2.175841-3.359402 2.187796-3.873474 2.217684-4.118555L2.145953-4.148443L1.703611-3.987049L.011955-1.219427L.077709-1.081943H1.673724ZM1.673724-1.464508H.388543L1.673724-3.568618V-1.464508Z'/>
<use id='g18-2' xlink:href='#g17-2' transform='scale(1.25)'/>
<use id='g26-49' xlink:href='#g5-49' transform='scale(1.666667)'/>
<use id='g26-50' xlink:href='#g5-50' transform='scale(1.666667)'/>
<use id='g26-51' xlink:href='#g5-51' transform='scale(1.666667)'/>
<use id='g26-52' xlink:href='#g5-52' transform='scale(1.666667)'/>
</defs>
<g id='page1' transform='matrix(1.4 0 0 1.4 0 0)'>
<g transform='matrix(1 0 0 1 -13.56862 3.0486)'>
<use x='16.888983' y='80.746122' xlink:href='#g26-51'/>
<use x='26.422613' y='80.746122' xlink:href='#g18-2'/>
<use x='39.044587' y='80.746122' xlink:href='#g26-52'/>
</g>
<path d='M5.5508 85C5.5508 88.92187 12.63672 88.16015 12.63672 92.0859' stroke='#000' fill='none' stroke-width='.3985' stroke-miterlimit='10'/>
<path d='M28.2266 85C28.2266 88.92187 21.14063 88.16015 21.14063 92.0859' stroke='#000' fill='none' stroke-width='.3985' stroke-miterlimit='10'/>
<path d='M9.80078 92.0859H23.97656V99.1719C23.97656 103.0859 20.80469 106.2578 16.890625 106.2578C12.97656 106.2578 9.80078 103.0859 9.80078 99.1719Z' stroke='#000' fill='none' stroke-width='.3985' stroke-miterlimit='10'/>
<g transform='matrix(1 0 0 1 -4.1594 21.0209)'>
<use x='17.0135' y='80.746122' xlink:href='#g18-2'/>
</g>
<path d='M24.19531 106.5781H9.58203C9.03125 106.5781 8.58594 107.0234 8.58594 107.5742V119.2344C8.58594 119.7852 9.03125 120.2305 9.58203 120.2305H24.19531C24.74609 120.2305 25.19141 119.7852 25.19141 119.2344V107.5742C25.19141 107.0234 24.74609 106.5781 24.19531 106.5781Z' stroke='#000' fill='none' stroke-width='.3985' stroke-miterlimit='10'/>
<g transform='matrix(1 0 0 1 -4.9814 36.1059)'>
<use x='16.888983' y='80.746122' xlink:href='#g26-49'/>
<use x='21.870303' y='80.746122' xlink:href='#g26-50'/>
</g>
</g>
</svg>