<?xml version='1.0' encoding='UTF-8'?>
<!-- This file was generated by dvisvgm 2.12 -->
<svg version='1.1' xmlns='http://www.w3.org/2000/svg' xmlns:xlink='http://www.w3.org/1999/xlink' width='289.811631pt' height='228.432484pt' viewBox='147.020529 1225.757666 289.811631 228.432484'>
<defs>
<path id='g5-46' d='M.74122-.663512C.561893-.663512 .400498-.496139 .400498-.316812S.561893 .029888 .735243 .029888C.926526 .029888 1.093898-.131507 1.093898-.316812C1.093898-.496139 .926526-.663512 .74122-.663512Z'/>
<path id='g5-48' d='M1.572105-4.118555C.645579-4.118555 .17335-3.383313 .17335-1.936737C.17335-1.23736 .298879-.633624 .508095-.340722S1.052055 .119552 1.422665 .119552C2.32528 .119552 2.779577-.657534 2.779577-2.187796C2.779577-3.496887 2.391034-4.118555 1.572105-4.118555ZM1.464508-3.90934C2.044334-3.90934 2.27746-3.323537 2.27746-1.888917C2.27746-.615691 2.050311-.089664 1.500374-.089664C.920548-.089664 .675467-.6934 .675467-2.15193C.675467-3.4132 .896638-3.90934 1.464508-3.90934Z'/>
<path id='g5-49' d='M.400498-3.317559H.460274L1.231382-3.664259C1.23736-3.670237 1.243337-3.670237 1.249315-3.670237C1.285181-3.670237 1.297136-3.616438 1.297136-3.472976V-.573848C1.297136-.263014 1.231382-.19726 .908593-.179328L.573848-.161395V.017933C1.494396 0 1.494396 0 1.560149 0C1.637858 0 1.769365 0 1.972603 .005978C2.044334 .011955 2.253549 .011955 2.49863 .017933V-.161395L2.187796-.179328C1.859029-.19726 1.799253-.263014 1.799253-.573848V-4.118555L1.715567-4.148443C1.327024-3.945205 .902615-3.765878 .358655-3.574595L.400498-3.317559Z'/>
<path id='g5-50' d='M.095641-.137484V.017933C1.21345 0 1.21345 0 1.428643 0S1.643836 0 2.797509 .017933C2.785554-.107597 2.785554-.167372 2.785554-.251059C2.785554-.328767 2.785554-.388543 2.797509-.52005C2.110087-.490162 1.835118-.484184 .729265-.460274L1.817186-1.613948C2.397011-2.229639 2.576339-2.558406 2.576339-3.006725C2.576339-3.694147 2.110087-4.118555 1.350934-4.118555C.920548-4.118555 .627646-3.999004 .334745-3.700125L.233126-2.887173H.406476L.484184-3.162142C.579826-3.508842 .795019-3.658281 1.195517-3.658281C1.709589-3.658281 2.038356-3.335492 2.038356-2.827397C2.038356-2.379078 1.787298-1.936737 1.111831-1.219427L.095641-.137484Z'/>
<path id='g5-51' d='M.257036-2.976837H.442341L.549938-3.311582C.615691-3.514819 .992279-3.718057 1.303113-3.718057C1.691656-3.718057 2.008468-3.401245 2.008468-3.024658C2.008468-2.576339 1.655791-2.199751 1.231382-2.199751C1.183562-2.199751 1.117808-2.205729 1.0401-2.211706L.950436-2.217684L.878705-1.900872L.920548-1.865006C1.147696-1.966625 1.26127-1.996513 1.422665-1.996513C1.918804-1.996513 2.205729-1.679701 2.205729-1.135741C2.205729-.526027 1.841096-.125529 1.285181-.125529C1.010212-.125529 .765131-.215193 .585803-.382565C.442341-.514072 .364633-.651557 .251059-.974346L.089664-.91457C.215193-.549938 .263014-.334745 .298879-.035866C.615691 .071731 .878705 .119552 1.099875 .119552C1.578082 .119552 2.12802-.14944 2.456787-.549938C2.660025-.795019 2.761644-1.058032 2.761644-1.338979C2.761644-1.625903 2.642092-1.876961 2.426899-2.026401C2.27746-2.133998 2.139975-2.181818 1.841096-2.235616C2.319303-2.606227 2.49863-2.881196 2.49863-3.233873C2.49863-3.765878 2.056289-4.118555 1.392777-4.118555C.986301-4.118555 .71731-4.004981 .430386-3.718057L.257036-2.976837Z'/>
<path id='g5-52' d='M1.673724-1.081943V-.633624C1.673724-.274969 1.60797-.191283 1.315068-.179328L.944458-.161395V.017933C1.739477 0 1.739477 0 1.882939 0S2.026401 0 2.82142 .017933V-.161395L2.534496-.179328C2.241594-.19726 2.175841-.274969 2.175841-.633624V-1.081943C2.528518-1.081943 2.654047-1.075965 2.82142-1.058032V-1.482441C2.540473-1.458531 2.426899-1.458531 2.337235-1.464508H2.319303H2.175841V-2.295392C2.175841-3.359402 2.187796-3.873474 2.217684-4.118555L2.145953-4.148443L1.703611-3.987049L.011955-1.219427L.077709-1.081943H1.673724ZM1.673724-1.464508H.388543L1.673724-3.568618V-1.464508Z'/>
<path id='g5-53' d='M.759153-3.616438C1.530262-3.592528 1.865006-3.58655 2.582316-3.58655L2.612204-3.616438C2.600249-3.724035 2.600249-3.771856 2.600249-3.849564C2.600249-3.93325 2.600249-3.981071 2.612204-4.088667L2.582316-4.118555C2.133998-4.094645 1.865006-4.088667 1.542217-4.088667C1.21345-4.088667 .950436-4.094645 .502117-4.118555L.472229-4.088667C.478207-3.724035 .484184-3.461021 .484184-3.269738C.484184-2.761644 .466252-2.187796 .448319-1.924782L.56787-1.888917C.848817-2.169863 1.010212-2.253549 1.303113-2.253549C1.876961-2.253549 2.235616-1.847073 2.235616-1.201494C2.235616-.537983 1.853051-.14944 1.201494-.14944C.878705-.14944 .579826-.257036 .496139-.412453L.221171-.902615L.077709-.818929C.215193-.478207 .286924-.286924 .37061-.02391C.537983 .065753 .777086 .119552 1.034122 .119552C1.43462 .119552 1.859029-.053798 2.187796-.340722C2.552428-.663512 2.743711-1.069988 2.743711-1.512329C2.743711-2.187796 2.259527-2.666002 1.578082-2.666002C1.291158-2.666002 1.075965-2.588294 .705355-2.367123L.759153-3.616438Z'/>
<path id='g5-54' d='M2.486675-4.016936L2.265504-4.118555C1.691656-3.927273 1.446575-3.807721 1.141719-3.544707C.526027-3.024658 .191283-2.295392 .191283-1.476463C.191283-.490162 .669489 .119552 1.440598 .119552C2.217684 .119552 2.797509-.496139 2.797509-1.309091C2.797509-1.996513 2.385056-2.444832 1.751432-2.444832C1.452553-2.444832 1.273225-2.367123 .920548-2.086177C.854795-2.032379 .848817-2.026401 .783064-1.97858C.908593-3.060523 1.41071-3.646326 2.486675-3.969116V-4.016936ZM1.524284-2.086177C1.97858-2.086177 2.283437-1.691656 2.283437-1.099875C2.283437-.478207 1.97858-.077709 1.518306-.077709C1.010212-.077709 .735243-.514072 .735243-1.315068C.735243-1.524284 .759153-1.637858 .824907-1.739477C.956413-1.942715 1.23736-2.086177 1.524284-2.086177Z'/>
<path id='g5-56' d='M1.004234-2.062267C.759153-1.948692 .657534-1.882939 .526027-1.75741C.298879-1.530262 .179328-1.26127 .179328-.950436C.179328-.334745 .675467 .119552 1.350934 .119552C2.12802 .119552 2.773599-.490162 2.773599-1.231382C2.773599-1.709589 2.552428-1.966625 1.870984-2.27746C2.414944-2.64807 2.606227-2.899128 2.606227-3.257783C2.606227-3.771856 2.181818-4.118555 1.548194-4.118555C.836862-4.118555 .316812-3.664259 .316812-3.036613C.316812-2.630137 .478207-2.402989 1.004234-2.062267ZM1.697634-1.763387C2.074222-1.596015 2.30137-1.303113 2.30137-.980324C2.30137-.478207 1.924782-.083686 1.440598-.083686C.932503-.083686 .603736-.442341 .603736-.998257C.603736-1.43462 .777086-1.709589 1.219427-1.97858L1.697634-1.763387ZM1.333001-2.528518C.956413-2.713823 .765131-2.952927 .765131-3.251806C.765131-3.646326 1.052055-3.915318 1.476463-3.915318C1.912827-3.915318 2.199751-3.628394 2.199751-3.19203C2.199751-2.851308 2.050311-2.618182 1.661768-2.367123L1.333001-2.528518Z'/>
<path id='g5-57' d='M.573848 .119552C1.23736-.095641 1.524284-.233126 1.847073-.508095C2.426899-1.004234 2.731756-1.691656 2.731756-2.492653C2.731756-3.502864 2.247572-4.118555 1.458531-4.118555C.6934-4.118555 .119552-3.520797 .119552-2.719801C.119552-2.032379 .56787-1.530262 1.189539-1.530262C1.392777-1.530262 1.625903-1.596015 1.733499-1.685679L2.15193-2.032379C2.10411-1.028144 1.452553-.292902 .37061-.029888V.017933L.573848 .119552ZM1.43462-3.921295C1.703611-3.921295 1.900872-3.807721 2.032379-3.568618C2.139975-3.377335 2.211706-3.084433 2.211706-2.815442C2.211706-2.265504 1.894894-1.894894 1.43462-1.894894C.956413-1.894894 .633624-2.319303 .633624-2.940971C.633624-3.544707 .944458-3.921295 1.43462-3.921295Z'/>
<path id='g5-58' d='M.735243-.663512C.555915-.663512 .394521-.496139 .394521-.316812S.555915 .029888 .729265 .029888C.920548 .029888 1.08792-.131507 1.08792-.316812C1.08792-.496139 .920548-.663512 .735243-.663512ZM.735243-2.725778C.555915-2.725778 .394521-2.558406 .394521-2.379078S.555915-2.032379 .729265-2.032379C.920548-2.032379 1.08792-2.193773 1.08792-2.373101C1.08792-2.558406 .920548-2.725778 .735243-2.725778Z'/>
<path id='g17-0' d='M5.4729-1.910117C5.614082-1.910117 5.76357-1.910117 5.76357-2.076214S5.614082-2.242311 5.4729-2.242311H.979973C.83879-2.242311 .689303-2.242311 .689303-2.076214S.83879-1.910117 .979973-1.910117H5.4729Z'/>
<path id='g17-2' d='M3.230589-2.30875L1.569618-3.961416C1.469959-4.061074 1.45335-4.077684 1.386911-4.077684C1.303862-4.077684 1.220814-4.00294 1.220814-3.911587C1.220814-3.853453 1.237423-3.836843 1.328777-3.74549L2.989748-2.076214L1.328777-.406938C1.237423-.315585 1.220814-.298975 1.220814-.240841C1.220814-.149487 1.303862-.074744 1.386911-.074744C1.45335-.074744 1.469959-.091353 1.569618-.191012L3.222284-1.843678L4.941389-.124573C4.957999-.116268 5.016133-.074744 5.065962-.074744C5.16562-.074744 5.232059-.149487 5.232059-.240841C5.232059-.257451 5.232059-.29067 5.207144-.332194C5.198839-.348804 3.878367-1.652666 3.463125-2.076214L4.982913-3.596002C5.024437-3.645831 5.14901-3.753795 5.190535-3.803624C5.198839-3.820233 5.232059-3.853453 5.232059-3.911587C5.232059-4.00294 5.16562-4.077684 5.065962-4.077684C4.999523-4.077684 4.966303-4.044465 4.87495-3.953111L3.230589-2.30875Z'/>
<path id='g17-4' d='M3.762099-3.870063C3.762099-4.135818 3.537868-4.393268 3.230589-4.393268C2.915004-4.393268 2.699078-4.135818 2.699078-3.870063S2.923309-3.346857 3.230589-3.346857C3.546173-3.346857 3.762099-3.604307 3.762099-3.870063ZM3.762099-.282365C3.762099-.54812 3.537868-.805571 3.230589-.805571C2.915004-.805571 2.699078-.54812 2.699078-.282365S2.923309 .240841 3.230589 .240841C3.546173 .240841 3.762099-.01661 3.762099-.282365ZM.747437-2.242311C.606254-2.242311 .456767-2.242311 .456767-2.076214S.606254-1.910117 .747437-1.910117H5.71374C5.854923-1.910117 6.00441-1.910117 6.00441-2.076214S5.854923-2.242311 5.71374-2.242311H.747437Z'/>
<path id='g17-34' d='M2.242311-4.609195C2.441627-4.29361 2.674163-4.061074 2.881785-3.903282C3.388381-3.521259 3.894977-3.43821 3.911587-3.43821C4.011245-3.43821 4.011245-3.529564 4.011245-3.596002C4.011245-3.72888 4.00294-3.737185 3.820233-3.795319C3.255503-3.953111 2.931614-4.252086 2.740602-4.459707C2.317055-4.916474 2.217396-5.414766 2.167567-5.680521C2.159262-5.722045 2.126043-5.755265 2.076214-5.755265C2.00147-5.755265 1.993165-5.705436 1.976556-5.605777C1.785544-4.683938 1.195899-4.03616 .282365-3.778709C.157792-3.737185 .141183-3.737185 .141183-3.596002C.141183-3.529564 .141183-3.43821 .240841-3.43821C.265755-3.43821 .755742-3.529564 1.229119-3.870063C1.503179-4.077684 1.72741-4.32683 1.910117-4.609195V1.312167C1.910117 1.461655 1.910117 1.611142 2.076214 1.611142S2.242311 1.461655 2.242311 1.312167V-4.609195Z'/>
<use id='g22-51' xlink:href='#g5-51' transform='scale(1.333333)'/>
<use id='g6-46' xlink:href='#g5-46' transform='scale(1.266668)'/>
<use id='g18-0' xlink:href='#g17-0' transform='scale(1.25)'/>
<use id='g18-2' xlink:href='#g17-2' transform='scale(1.25)'/>
<use id='g18-4' xlink:href='#g17-4' transform='scale(1.25)'/>
<use id='g18-34' xlink:href='#g17-34' transform='scale(1.25)'/>
<use id='g26-48' xlink:href='#g5-48' transform='scale(1.666667)'/>
<use id='g26-49' xlink:href='#g5-49' transform='scale(1.666667)'/>
<use id='g26-50' xlink:href='#g5-50' transform='scale(1.666667)'/>
<use id='g26-51' xlink:href='#g5-51' transform='scale(1.666667)'/>
<use id='g26-52' xlink:href='#g5-52' transform='scale(1.666667)'/>
<use id='g26-53' xlink:href='#g5-53' transform='scale(1.666667)'/>
<use id='g26-54' xlink:href='#g5-54' transform='scale(1.666667)'/>
<use id='g26-56' xlink:href='#g5-56' transform='scale(1.666667)'/>
<use id='g26-57' xlink:href='#g5-57' transform='scale(1.666667)'/>
<use id='g26-58' xlink:href='#g5-58' transform='scale(1.666667)'/>
<path id='g16-40' d='M3.436134 2.491457C3.436134 2.460313 3.436134 2.439551 3.259656 2.263073C1.962022 .955058 1.629828-1.006964 1.629828-2.595267C1.629828-4.401573 2.024308-6.207879 3.30118-7.505513C3.436134-7.630086 3.436134-7.650848 3.436134-7.681991C3.436134-7.754659 3.39461-7.785802 3.332323-7.785802C3.228513-7.785802 2.294216-7.079889 1.681733-5.761493C1.152299-4.619576 1.027726-3.467277 1.027726-2.595267C1.027726-1.785544 1.141918-.529435 1.712876 .643626C2.335741 1.920498 3.228513 2.595267 3.332323 2.595267C3.39461 2.595267 3.436134 2.564124 3.436134 2.491457Z'/>
<path id='g16-41' d='M3.000129-2.595267C3.000129-3.404991 2.885937-4.6611 2.314978-5.834161C1.692114-7.111032 .799342-7.785802 .695532-7.785802C.633245-7.785802 .591721-7.744278 .591721-7.681991C.591721-7.650848 .591721-7.630086 .788961-7.443227C1.806306-6.415501 2.398027-4.764911 2.398027-2.595267C2.398027-.820104 2.013927 1.006964 .726675 2.314978C.591721 2.439551 .591721 2.460313 .591721 2.491457C.591721 2.553743 .633245 2.595267 .695532 2.595267C.799342 2.595267 1.733639 1.889355 2.346122 .570959C2.875556-.570959 3.000129-1.723257 3.000129-2.595267Z'/>
<path id='g16-43' d='M4.245857-2.387646H7.142176C7.287511-2.387646 7.484751-2.387646 7.484751-2.595267S7.287511-2.802889 7.142176-2.802889H4.245857V-5.709588C4.245857-5.854923 4.245857-6.052163 4.038236-6.052163S3.830615-5.854923 3.830615-5.709588V-2.802889H.923915C.77858-2.802889 .58134-2.802889 .58134-2.595267S.77858-2.387646 .923915-2.387646H3.830615V.519053C3.830615 .664388 3.830615 .861629 4.038236 .861629S4.245857 .664388 4.245857 .519053V-2.387646Z'/>
<path id='g16-61' d='M7.131795-3.39461C7.287511-3.39461 7.484751-3.39461 7.484751-3.602231S7.287511-3.809852 7.142176-3.809852H.923915C.77858-3.809852 .58134-3.809852 .58134-3.602231S.77858-3.39461 .934296-3.39461H7.131795ZM7.142176-1.380682C7.287511-1.380682 7.484751-1.380682 7.484751-1.588304S7.287511-1.795925 7.131795-1.795925H.934296C.77858-1.795925 .58134-1.795925 .58134-1.588304S.77858-1.380682 .923915-1.380682H7.142176Z'/>
<path id='g16-91' d='M2.647173 2.595267V2.180025H1.640209V-7.370559H2.647173V-7.785802H1.224966V2.595267H2.647173Z'/>
<path id='g16-93' d='M1.65059-7.785802H.228384V-7.370559H1.235347V2.180025H.228384V2.595267H1.65059V-7.785802Z'/>
</defs>
<g id='page1' transform='matrix(1.4 0 0 1.4 0 0)'>
<g transform='matrix(1 0 0 1 -103.782 2.595)'>
<use x='208.796663' y='882.626597' xlink:href='#g16-91'/>
<use x='211.800427' y='882.626597' xlink:href='#g26-52'/>
<use x='221.334058' y='882.626597' xlink:href='#g18-2'/>
<use x='233.956032' y='882.626597' xlink:href='#g26-53'/>
<use x='243.489662' y='882.626597' xlink:href='#g16-43'/>
<use x='256.111636' y='882.626597' xlink:href='#g26-49'/>
<use x='261.092956' y='882.626597' xlink:href='#g26-54'/>
<use x='271.456786' y='882.626597' xlink:href='#g26-58'/>
<use x='279.329972' y='882.626597' xlink:href='#g26-50'/>
<use x='288.863603' y='882.626597' xlink:href='#g18-0'/>
<use x='301.610094' y='882.626597' xlink:href='#g16-40'/>
<use x='305.759547' y='882.626597' xlink:href='#g26-49'/>
<use x='310.740867' y='882.626597' xlink:href='#g26-51'/>
<use x='320.274498' y='882.626597' xlink:href='#g18-0'/>
<use x='332.896472' y='882.626597' xlink:href='#g26-50'/>
<use x='337.972423' y='879.010169' xlink:href='#g6-46'/>
<use x='340.054619' y='879.010169' xlink:href='#g6-46'/>
<use x='342.136815' y='879.010169' xlink:href='#g6-46'/>
<use x='344.747006' y='882.626597' xlink:href='#g16-41'/>
<use x='353.44877' y='882.626597' xlink:href='#g18-2'/>
<use x='366.070744' y='882.626597' xlink:href='#g26-50'/>
<use x='371.176582' y='882.626597' xlink:href='#g16-93'/>
<use x='379.562856' y='882.626597' xlink:href='#g26-58'/>
<use x='387.436041' y='882.626597' xlink:href='#g26-50'/>
<use x='397.799871' y='882.626597' xlink:href='#g16-61'/>
<use x='411.252045' y='882.626597' xlink:href='#g26-57'/>
</g>
<path d='M110.875 886.87889C110.875 890.59764 117.2539 890.24608 117.2539 893.9648' stroke='#000' fill='none' stroke-width='.3985' stroke-miterlimit='10'/>
<path d='M132.1367 886.87889C132.1367 890.59764 125.7578 890.24608 125.7578 893.9648' stroke='#000' fill='none' stroke-width='.3985' stroke-miterlimit='10'/>
<path d='M114.418 893.9648H128.5938V901.0508C128.5938 904.9648 125.418 908.1406 121.5039 908.1406C117.5938 908.1406 114.418 904.9648 114.418 901.0508Z' stroke='#000' fill='none' stroke-width='.3985' stroke-miterlimit='10'/>
<g transform='matrix(1 0 0 1 -91.326 21.021)'>
<use x='208.796663' y='882.626597' xlink:href='#g18-2'/>
</g>
<path d='M128.8125 908.5078H114.1992C113.6484 908.5078 113.2031 908.9531 113.2031 909.5039V921.1172C113.2031 921.668 113.6484 922.1133 114.1992 922.1133H128.8125C129.3633 922.1133 129.8086 921.668 129.8086 921.1172V909.5039C129.8086 908.9531 129.3633 908.5078 128.8125 908.5078Z' stroke='#000' fill='none' stroke-width='.3985' stroke-miterlimit='10'/>
<g transform='matrix(1 0 0 1 -92.148 36.006)'>
<use x='208.672146' y='882.626597' xlink:href='#g26-50'/>
<use x='213.653466' y='882.626597' xlink:href='#g26-48'/>
</g>
<path d='M157.6484 886.87889C157.6484 890.80467 164.7344 890.04295 164.7344 893.9648' stroke='#000' fill='none' stroke-width='.3985' stroke-miterlimit='10'/>
<path d='M178.1992 886.87889C178.1992 890.2617 173.2383 890.58202 173.2383 893.9648' stroke='#000' fill='none' stroke-width='.3985' stroke-miterlimit='10'/>
<path d='M161.8984 893.9648H176.0742V901.0508C176.0742 904.9648 172.8984 908.1406 168.9883 908.1406C165.0742 908.1406 161.8984 904.9648 161.8984 901.0508Z' stroke='#000' fill='none' stroke-width='.3985' stroke-miterlimit='10'/>
<g transform='matrix(1 0 0 1 -43.845 21.021)'>
<use x='208.796663' y='882.626597' xlink:href='#g18-4'/>
</g>
<path d='M173.8008 908.5078H164.1719C163.6211 908.5078 163.1758 908.9531 163.1758 909.5039V921.1172C163.1758 921.668 163.6211 922.1133 164.1719 922.1133H173.8008C174.3516 922.1133 174.7969 921.668 174.7969 921.1172V909.5039C174.7969 908.9531 174.3516 908.5078 173.8008 908.5078Z' stroke='#000' fill='none' stroke-width='.3985' stroke-miterlimit='10'/>
<g transform='matrix(1 0 0 1 -42.176 36.006)'>
<use x='208.672146' y='882.626597' xlink:href='#g26-56'/>
</g>
<path d='M232.0586 886.87889C232.0586 889.6992 230.6406 891.14842 230.6406 893.9648' stroke='#000' fill='none' stroke-width='.3985' stroke-miterlimit='10'/>
<path d='M237.7266 882.628892C237.7266 887.08202 239.1445 889.5078 239.1445 893.9648' stroke='#000' fill='none' stroke-width='.3985' stroke-miterlimit='10'/>
<path d='M227.8047 893.9648H241.9805V901.0508C241.9805 904.9648 238.8086 908.1406 234.8945 908.1406C230.9805 908.1406 227.8047 904.9648 227.8047 901.0508Z' stroke='#000' fill='none' stroke-width='.3985' stroke-miterlimit='10'/>
<g transform='matrix(1 0 0 1 23.501 21.021)'>
<use x='208.796663' y='882.626597' xlink:href='#g18-34'/>
</g>
<path d='M239.707 908.5078H230.0781C229.5273 908.5078 229.082 908.9531 229.082 909.5039V921.1172C229.082 921.668 229.5273 922.1133 230.0781 922.1133H239.707C240.2578 922.1133 240.7031 921.668 240.7031 921.1172V909.5039C240.7031 908.9531 240.2578 908.5078 239.707 908.5078Z' stroke='#000' fill='none' stroke-width='.3985' stroke-miterlimit='10'/>
<path d='M121.5039 922.3125C121.5039 929.9219 139.6484 921.793 139.6484 929.3984' stroke='#000' fill='none' stroke-width='.3985' stroke-miterlimit='10'/>
<path d='M168.9883 922.3125C168.9883 930.9062 148.1523 920.8047 148.1523 929.3984' stroke='#000' fill='none' stroke-width='.3985' stroke-miterlimit='10'/>
<path d='M136.8125 929.3984H150.9844V936.4844C150.9844 940.3984 147.8125 943.5742 143.8984 943.5742C139.9844 943.5742 136.8125 940.3984 136.8125 936.4844Z' stroke='#000' fill='none' stroke-width='.3985' stroke-miterlimit='10'/>
<g transform='matrix(1 0 0 1 -68.932 56.454)'>
<use x='208.796663' y='882.626597' xlink:href='#g16-43'/>
</g>
<path d='M151.207 943.9414H136.5938C136.043 943.9414 135.5977 944.3867 135.5977 944.9375V956.5508C135.5977 957.1015 136.043 957.5469 136.5938 957.5469H151.207C151.7539 957.5469 152.2031 957.1015 152.2031 956.5508V944.9375C152.2031 944.3867 151.7539 943.9414 151.207 943.9414Z' stroke='#000' fill='none' stroke-width='.3985' stroke-miterlimit='10'/>
<g transform='matrix(1 0 0 1 -69.754 71.44)'>
<use x='208.672146' y='882.626597' xlink:href='#g26-50'/>
<use x='213.653466' y='882.626597' xlink:href='#g26-56'/>
</g>
<path d='M207.25391 886.87889C207.25391 903.8555 216.46875 912.4219 216.46875 929.3984' stroke='#000' fill='none' stroke-width='.3985' stroke-miterlimit='10'/>
<path d='M234.8945 922.3125C234.8945 927.0703 224.9727 924.6406 224.9727 929.3984' stroke='#000' fill='none' stroke-width='.3985' stroke-miterlimit='10'/>
<path d='M213.63282 929.3984H227.8047V936.4844C227.8047 940.3984 224.6328 943.5742 220.7188 943.5742C216.80469 943.5742 213.63282 940.3984 213.63282 936.4844Z' stroke='#000' fill='none' stroke-width='.3985' stroke-miterlimit='10'/>
<g transform='matrix(1 0 0 1 7.888 56.454)'>
<use x='208.796663' y='882.626597' xlink:href='#g18-0'/>
</g>
<path d='M225.5352 943.9414H215.90625C215.35547 943.9414 214.90625 944.3867 214.90625 944.9375V956.5508C214.90625 957.1015 215.35547 957.5469 215.90625 957.5469H225.5352C226.0859 957.5469 226.5313 957.1015 226.5313 956.5508V944.9375C226.5313 944.3867 226.0859 943.9414 225.5352 943.9414Z' stroke='#000' fill='none' stroke-width='.3985' stroke-miterlimit='10'/>
<g transform='matrix(1 0 0 1 -1.428 70.992)'>
<use x='208.796663' y='882.626597' xlink:href='#g16-40'/>
</g>
<g transform='matrix(1 0 0 1 21.249 70.992)'>
<use x='208.796663' y='882.626597' xlink:href='#g16-41'/>
</g>
<path d='M220.7188 957.7461C220.7188 969.0781 249.7734 946.414 249.7734 957.7461' stroke='#000' fill='none' stroke-width='.3985' stroke-miterlimit='10'/>
<path d='M264.6563 886.87889C264.6563 914.7305 258.2773 929.8945 258.2773 957.7461' stroke='#000' fill='none' stroke-width='.3985' stroke-miterlimit='10'/>
<path d='M246.9414 957.7461H261.1133V964.832C261.1133 968.7461 257.9414 971.918 254.0273 971.918C250.1133 971.918 246.9414 968.7461 246.9414 964.832Z' stroke='#000' fill='none' stroke-width='.3985' stroke-miterlimit='10'/>
<g transform='matrix(1 0 0 1 41.195 84.801)'>
<use x='208.796663' y='882.626597' xlink:href='#g18-2'/>
</g>
<path d='M261.332 972.1406H246.7227C246.1719 972.1406 245.7266 972.5859 245.7266 973.1367V984.898C245.7266 985.449 246.1719 985.895 246.7227 985.895H261.332C261.8828 985.895 262.3281 985.449 262.3281 984.898V973.1367C262.3281 972.5859 261.8828 972.1406 261.332 972.1406Z' stroke='#000' fill='none' stroke-width='.3985' stroke-miterlimit='10'/>
<path d='M143.8984 957.7461C143.8984 975.7031 185.2852 959.6328 185.2852 977.5898' stroke='#000' fill='none' stroke-width='.3985' stroke-miterlimit='10'/>
<path d='M254.0273 986.094C254.0273 1009.859 193.7891 953.8203 193.7891 977.5898' stroke='#000' fill='none' stroke-width='.3985' stroke-miterlimit='10'/>
<path d='M182.4492 977.5898H196.625V984.676C196.625 988.59 193.4531 991.762 189.5391 991.762C185.625 991.762 182.4492 988.59 182.4492 984.676Z' stroke='#000' fill='none' stroke-width='.3985' stroke-miterlimit='10'/>
<g transform='matrix(1 0 0 1 -23.294 104.644)'>
<use x='208.796663' y='882.626597' xlink:href='#g18-0'/>
</g>
<path d='M196.8438 991.98H182.2305C181.6836 991.98 181.2344 992.43 181.2344 992.977V1004.738C181.2344 1005.289 181.6836 1005.734 182.2305 1005.734H196.8438C197.3945 1005.734 197.8398 1005.289 197.8398 1004.738V992.977C197.8398 992.43 197.3945 991.98 196.8438 991.98Z' stroke='#000' fill='none' stroke-width='.3985' stroke-miterlimit='10'/>
<g transform='matrix(1 0 0 1 -34.872 119.183)'>
<use x='208.796663' y='882.626597' xlink:href='#g16-91'/>
</g>
<g transform='matrix(1 0 0 1 -6.525 119.183)'>
<use x='208.796663' y='882.626597' xlink:href='#g16-93'/>
</g>
<path d='M189.5391 1005.937C189.5391 1038.508 272.7344 970.5273 272.7344 1003.102' stroke='#000' fill='none' stroke-width='.3985' stroke-miterlimit='10'/>
<path d='M285.918 886.87889C285.918 932.3789 281.2383 957.6015 281.2383 1003.102' stroke='#000' fill='none' stroke-width='.3985' stroke-miterlimit='10'/>
<path d='M269.9023 1003.102H284.0742V1010.187C284.0742 1014.102 280.9023 1017.273 276.9883 1017.273C273.0742 1017.273 269.9023 1014.102 269.9023 1010.187Z' stroke='#000' fill='none' stroke-width='.3985' stroke-miterlimit='10'/>
<g transform='matrix(1 0 0 1 64.156 130.153)'>
<use x='208.796663' y='882.626597' xlink:href='#g18-4'/>
</g>
<path d='M281.8047 1017.645H272.1719C271.6211 1017.645 271.1758 1018.09 271.1758 1018.641V1030.254C271.1758 1030.801 271.6211 1031.25 272.1719 1031.25H281.8047C282.3516 1031.25 282.8008 1030.801 282.8008 1030.254V1018.641C282.8008 1018.09 282.3516 1017.645 281.8047 1017.645Z' stroke='#000' fill='none' stroke-width='.3985' stroke-miterlimit='10'/>
<path d='M281.8047 1017.246H272.1719C271.6211 1017.246 271.1758 1017.691 271.1758 1018.242V1029.855C271.1758 1030.402 271.6211 1030.852 272.1719 1030.852H281.8047C282.3516 1030.852 282.8008 1030.402 282.8008 1029.855V1018.242C282.8008 1017.691 282.3516 1017.246 281.8047 1017.246Z' stroke='#000' fill='none' stroke-width='1.19553' stroke-miterlimit='10'/>
<g transform='matrix(1 0 0 1 65.825 144.743)'>
<use x='208.672146' y='882.626597' xlink:href='#g26-57'/>
</g>
<g transform='matrix(1 0 0 1 -24.116 119.633)'>
<use x='208.672146' y='882.626597' xlink:href='#g26-49'/>
<use x='213.653466' y='882.626597' xlink:href='#g26-56'/>
</g>
<g transform='matrix(1 0 0 1 40.373 99.787)'>
<use x='208.672146' y='882.626597' xlink:href='#g26-49'/>
<use x='213.653466' y='882.626597' xlink:href='#g26-48'/>
</g>
<g transform='matrix(1 0 0 1 9.557 71.44)'>
<use x='208.672146' y='882.626597' xlink:href='#g26-53'/>
</g>
<g transform='matrix(1 0 0 1 23.73 36.006)'>
<use x='208.672146' y='882.626597' xlink:href='#g26-56'/>
</g>
<g transform='matrix(1 0 0 1 27.063 -1.594)'>
<use x='208.672146' y='882.626597' xlink:href='#g22-51'/>
</g>
</g>
</svg>