<?xml version='1.0' encoding='UTF-8'?>
<!-- This file was generated by dvisvgm 2.12 -->
<svg version='1.1' xmlns='http://www.w3.org/2000/svg' xmlns:xlink='http://www.w3.org/1999/xlink' width='397.331444pt' height='43.68337pt' viewBox='25.570226 567.019791 397.331444 43.68337'>
<defs>
<path id='g5-48' d='M1.572105-4.118555C.645579-4.118555 .17335-3.383313 .17335-1.936737C.17335-1.23736 .298879-.633624 .508095-.340722S1.052055 .119552 1.422665 .119552C2.32528 .119552 2.779577-.657534 2.779577-2.187796C2.779577-3.496887 2.391034-4.118555 1.572105-4.118555ZM1.464508-3.90934C2.044334-3.90934 2.27746-3.323537 2.27746-1.888917C2.27746-.615691 2.050311-.089664 1.500374-.089664C.920548-.089664 .675467-.6934 .675467-2.15193C.675467-3.4132 .896638-3.90934 1.464508-3.90934Z'/>
<path id='g5-49' d='M.400498-3.317559H.460274L1.231382-3.664259C1.23736-3.670237 1.243337-3.670237 1.249315-3.670237C1.285181-3.670237 1.297136-3.616438 1.297136-3.472976V-.573848C1.297136-.263014 1.231382-.19726 .908593-.179328L.573848-.161395V.017933C1.494396 0 1.494396 0 1.560149 0C1.637858 0 1.769365 0 1.972603 .005978C2.044334 .011955 2.253549 .011955 2.49863 .017933V-.161395L2.187796-.179328C1.859029-.19726 1.799253-.263014 1.799253-.573848V-4.118555L1.715567-4.148443C1.327024-3.945205 .902615-3.765878 .358655-3.574595L.400498-3.317559Z'/>
<path id='g5-50' d='M.095641-.137484V.017933C1.21345 0 1.21345 0 1.428643 0S1.643836 0 2.797509 .017933C2.785554-.107597 2.785554-.167372 2.785554-.251059C2.785554-.328767 2.785554-.388543 2.797509-.52005C2.110087-.490162 1.835118-.484184 .729265-.460274L1.817186-1.613948C2.397011-2.229639 2.576339-2.558406 2.576339-3.006725C2.576339-3.694147 2.110087-4.118555 1.350934-4.118555C.920548-4.118555 .627646-3.999004 .334745-3.700125L.233126-2.887173H.406476L.484184-3.162142C.579826-3.508842 .795019-3.658281 1.195517-3.658281C1.709589-3.658281 2.038356-3.335492 2.038356-2.827397C2.038356-2.379078 1.787298-1.936737 1.111831-1.219427L.095641-.137484Z'/>
<path id='g5-51' d='M.257036-2.976837H.442341L.549938-3.311582C.615691-3.514819 .992279-3.718057 1.303113-3.718057C1.691656-3.718057 2.008468-3.401245 2.008468-3.024658C2.008468-2.576339 1.655791-2.199751 1.231382-2.199751C1.183562-2.199751 1.117808-2.205729 1.0401-2.211706L.950436-2.217684L.878705-1.900872L.920548-1.865006C1.147696-1.966625 1.26127-1.996513 1.422665-1.996513C1.918804-1.996513 2.205729-1.679701 2.205729-1.135741C2.205729-.526027 1.841096-.125529 1.285181-.125529C1.010212-.125529 .765131-.215193 .585803-.382565C.442341-.514072 .364633-.651557 .251059-.974346L.089664-.91457C.215193-.549938 .263014-.334745 .298879-.035866C.615691 .071731 .878705 .119552 1.099875 .119552C1.578082 .119552 2.12802-.14944 2.456787-.549938C2.660025-.795019 2.761644-1.058032 2.761644-1.338979C2.761644-1.625903 2.642092-1.876961 2.426899-2.026401C2.27746-2.133998 2.139975-2.181818 1.841096-2.235616C2.319303-2.606227 2.49863-2.881196 2.49863-3.233873C2.49863-3.765878 2.056289-4.118555 1.392777-4.118555C.986301-4.118555 .71731-4.004981 .430386-3.718057L.257036-2.976837Z'/>
<path id='g5-52' d='M1.673724-1.081943V-.633624C1.673724-.274969 1.60797-.191283 1.315068-.179328L.944458-.161395V.017933C1.739477 0 1.739477 0 1.882939 0S2.026401 0 2.82142 .017933V-.161395L2.534496-.179328C2.241594-.19726 2.175841-.274969 2.175841-.633624V-1.081943C2.528518-1.081943 2.654047-1.075965 2.82142-1.058032V-1.482441C2.540473-1.458531 2.426899-1.458531 2.337235-1.464508H2.319303H2.175841V-2.295392C2.175841-3.359402 2.187796-3.873474 2.217684-4.118555L2.145953-4.148443L1.703611-3.987049L.011955-1.219427L.077709-1.081943H1.673724ZM1.673724-1.464508H.388543L1.673724-3.568618V-1.464508Z'/>
<path id='g5-53' d='M.759153-3.616438C1.530262-3.592528 1.865006-3.58655 2.582316-3.58655L2.612204-3.616438C2.600249-3.724035 2.600249-3.771856 2.600249-3.849564C2.600249-3.93325 2.600249-3.981071 2.612204-4.088667L2.582316-4.118555C2.133998-4.094645 1.865006-4.088667 1.542217-4.088667C1.21345-4.088667 .950436-4.094645 .502117-4.118555L.472229-4.088667C.478207-3.724035 .484184-3.461021 .484184-3.269738C.484184-2.761644 .466252-2.187796 .448319-1.924782L.56787-1.888917C.848817-2.169863 1.010212-2.253549 1.303113-2.253549C1.876961-2.253549 2.235616-1.847073 2.235616-1.201494C2.235616-.537983 1.853051-.14944 1.201494-.14944C.878705-.14944 .579826-.257036 .496139-.412453L.221171-.902615L.077709-.818929C.215193-.478207 .286924-.286924 .37061-.02391C.537983 .065753 .777086 .119552 1.034122 .119552C1.43462 .119552 1.859029-.053798 2.187796-.340722C2.552428-.663512 2.743711-1.069988 2.743711-1.512329C2.743711-2.187796 2.259527-2.666002 1.578082-2.666002C1.291158-2.666002 1.075965-2.588294 .705355-2.367123L.759153-3.616438Z'/>
<path id='g5-54' d='M2.486675-4.016936L2.265504-4.118555C1.691656-3.927273 1.446575-3.807721 1.141719-3.544707C.526027-3.024658 .191283-2.295392 .191283-1.476463C.191283-.490162 .669489 .119552 1.440598 .119552C2.217684 .119552 2.797509-.496139 2.797509-1.309091C2.797509-1.996513 2.385056-2.444832 1.751432-2.444832C1.452553-2.444832 1.273225-2.367123 .920548-2.086177C.854795-2.032379 .848817-2.026401 .783064-1.97858C.908593-3.060523 1.41071-3.646326 2.486675-3.969116V-4.016936ZM1.524284-2.086177C1.97858-2.086177 2.283437-1.691656 2.283437-1.099875C2.283437-.478207 1.97858-.077709 1.518306-.077709C1.010212-.077709 .735243-.514072 .735243-1.315068C.735243-1.524284 .759153-1.637858 .824907-1.739477C.956413-1.942715 1.23736-2.086177 1.524284-2.086177Z'/>
<path id='g5-55' d='M.334745-.059776L.388543 .017933C.621669 0 .621669 0 .663512 0S.705355 0 .938481 .017933C1.189539-.633624 1.482441-1.255293 1.876961-1.972603L2.970859-3.939228V-4.118555C2.32528-4.094645 2.116065-4.088667 1.63188-4.088667C1.195517-4.088667 .902615-4.094645 .32279-4.118555L.263014-4.088667C.280946-3.520797 .280946-3.520797 .280946-3.461021C.280946-3.395268 .280946-3.395268 .263014-2.851308H.442341L.484184-3.186052C.532005-3.556663 .573848-3.604483 .848817-3.604483H2.444832C2.205729-3.114321 2.020423-2.767621 1.793275-2.402989L.334745-.059776Z'/>
<path id='g5-56' d='M1.004234-2.062267C.759153-1.948692 .657534-1.882939 .526027-1.75741C.298879-1.530262 .179328-1.26127 .179328-.950436C.179328-.334745 .675467 .119552 1.350934 .119552C2.12802 .119552 2.773599-.490162 2.773599-1.231382C2.773599-1.709589 2.552428-1.966625 1.870984-2.27746C2.414944-2.64807 2.606227-2.899128 2.606227-3.257783C2.606227-3.771856 2.181818-4.118555 1.548194-4.118555C.836862-4.118555 .316812-3.664259 .316812-3.036613C.316812-2.630137 .478207-2.402989 1.004234-2.062267ZM1.697634-1.763387C2.074222-1.596015 2.30137-1.303113 2.30137-.980324C2.30137-.478207 1.924782-.083686 1.440598-.083686C.932503-.083686 .603736-.442341 .603736-.998257C.603736-1.43462 .777086-1.709589 1.219427-1.97858L1.697634-1.763387ZM1.333001-2.528518C.956413-2.713823 .765131-2.952927 .765131-3.251806C.765131-3.646326 1.052055-3.915318 1.476463-3.915318C1.912827-3.915318 2.199751-3.628394 2.199751-3.19203C2.199751-2.851308 2.050311-2.618182 1.661768-2.367123L1.333001-2.528518Z'/>
<path id='g5-57' d='M.573848 .119552C1.23736-.095641 1.524284-.233126 1.847073-.508095C2.426899-1.004234 2.731756-1.691656 2.731756-2.492653C2.731756-3.502864 2.247572-4.118555 1.458531-4.118555C.6934-4.118555 .119552-3.520797 .119552-2.719801C.119552-2.032379 .56787-1.530262 1.189539-1.530262C1.392777-1.530262 1.625903-1.596015 1.733499-1.685679L2.15193-2.032379C2.10411-1.028144 1.452553-.292902 .37061-.029888V.017933L.573848 .119552ZM1.43462-3.921295C1.703611-3.921295 1.900872-3.807721 2.032379-3.568618C2.139975-3.377335 2.211706-3.084433 2.211706-2.815442C2.211706-2.265504 1.894894-1.894894 1.43462-1.894894C.956413-1.894894 .633624-2.319303 .633624-2.940971C.633624-3.544707 .944458-3.921295 1.43462-3.921295Z'/>
<use id='g11-48' xlink:href='#g5-48' transform='scale(1.166667)'/>
<use id='g11-49' xlink:href='#g5-49' transform='scale(1.166667)'/>
<use id='g11-50' xlink:href='#g5-50' transform='scale(1.166667)'/>
<use id='g11-51' xlink:href='#g5-51' transform='scale(1.166667)'/>
<use id='g11-52' xlink:href='#g5-52' transform='scale(1.166667)'/>
<use id='g11-53' xlink:href='#g5-53' transform='scale(1.166667)'/>
<use id='g11-54' xlink:href='#g5-54' transform='scale(1.166667)'/>
<use id='g11-55' xlink:href='#g5-55' transform='scale(1.166667)'/>
<use id='g11-56' xlink:href='#g5-56' transform='scale(1.166667)'/>
<use id='g11-57' xlink:href='#g5-57' transform='scale(1.166667)'/>
<path id='g2-78' d='M.118555-4.616687L.425405-4.595766C.711333-4.574844 .781071-4.519054 .781071-3.96812V-.836862C.781071-.285928 .711333-.223163 .425405-.209215L.118555-.188294V.020922C.530012 .006974 1.08792 0 1.366874 0S2.217684 .006974 2.608219 .020922V-.188294L2.30137-.209215C1.980573-.230137 1.945704-.292902 1.945704-.836862V-4.065753L5.244334 .027895L5.87198 .139477C5.87198 .111582 5.87198 .104608 5.865006 .055791C5.858032-.020922 5.851059-.076712 5.851059-.118555V-3.96812C5.851059-4.51208 5.885928-4.574844 6.206725-4.595766L6.513574-4.616687V-4.825903C6.018431-4.811955 5.809215-4.804981 5.676712-4.804981C5.537235-4.804981 5.376837-4.811955 4.867746-4.825903V-4.616687L5.174595-4.595766C5.495392-4.574844 5.530262-4.51208 5.530262-3.96812V-.683437L2.175841-4.825903L1.799253-4.804981H1.366874C1.08792-4.804981 .530012-4.811955 .118555-4.825903V-4.616687ZM1.624907-3.96812V-.836862C1.624907-.285928 1.590037-.230137 1.366874-.209215C1.143711-.230137 1.101868-.285928 1.101868-.836862V-3.96812C1.101868-4.519054 1.143711-4.574844 1.366874-4.595766C1.590037-4.581818 1.624907-4.519054 1.624907-3.96812Z'/>
</defs>
<g id='page1' transform='matrix(1.4 0 0 1.4 0 0)'>
<path d='M20.007812 425.601573H298.1679' stroke='#000' fill='none' stroke-width='.79701' stroke-miterlimit='10'/>
<path d='M296.01573 422.4922C296.48057 424.35939 297.51964 425.238292 298.566512 425.601573C297.51964 425.964854 296.48057 426.84767 296.01573 428.71485' stroke='#000' fill='none' stroke-width='.79701' stroke-miterlimit='10' stroke-linecap='round' stroke-linejoin='round'/>
<g transform='matrix(1 0 0 1 275.5511 -3.859)'>
<use x='20.007947' y='425.602067' xlink:href='#g2-78'/>
</g>
<path d='M105.0469 420.6211C105.0469 412.793 111.3945 406.4453 119.2227 406.4453S133.3949 412.793 133.3949 420.6211' stroke='#000' fill='none' stroke-width='.79701' stroke-miterlimit='10' stroke-dasharray='.79701 1.99255'/>
<path d='M127.51176 409.124902L125.367243 405.015529L125.414111 407.605384L122.941456 408.374895'/>
<path d='M133.3949 420.6211C133.3949 412.793 139.7419 406.4453 147.5699 406.4453C155.3949 406.4453 161.7419 412.793 161.7419 420.6211' stroke='#000' fill='none' stroke-width='.79701' stroke-miterlimit='10' stroke-dasharray='.79701 1.99255'/>
<path d='M155.859587 409.124882L153.715063 405.015512L153.761947 407.605348L151.285356 408.374898'/>
<path d='M161.7419 420.6211C161.7419 412.793 168.0859 406.4453 175.9139 406.4453S190.0899 412.793 190.0899 420.6211' stroke='#000' fill='none' stroke-width='.79701' stroke-miterlimit='10' stroke-dasharray='.79701 1.99255'/>
<path d='M184.206724 409.125069L182.058294 405.0157L182.105165 407.60555L179.632523 408.375078'/>
<path d='M190.0899 420.6211C190.0899 412.793 196.4339 406.4453 204.2619 406.4453S218.4379 412.793 218.4379 420.6211' stroke='#000' fill='none' stroke-width='.79701' stroke-miterlimit='10' stroke-dasharray='.79701 1.99255'/>
<path d='M212.554594 409.125094L210.406154 405.015705L210.453032 407.605574L207.980383 408.375083'/>
<path d='M218.4379 420.6211C218.4379 412.793 224.7809 406.4453 232.6089 406.4453C240.4379 406.4453 246.7809 412.793 246.7809 420.6211' stroke='#000' fill='none' stroke-width='.79701' stroke-miterlimit='10' stroke-dasharray='.79701 1.99255'/>
<path d='M240.898205 409.124882L238.753667 405.015515L238.800566 407.605357L236.327885 408.374899'/>
<path d='M20.007812 428.58985V422.61329' stroke='#000' fill='none' stroke-width='.79701' stroke-miterlimit='10'/>
<g transform='matrix(1 0 0 1 -1.7435 10.475)'>
<use x='20.007947' y='425.602067' xlink:href='#g11-48'/>
</g>
<path d='M48.3555 428.58985V422.61329' stroke='#000' fill='none' stroke-width='.79701' stroke-miterlimit='10'/>
<g transform='matrix(1 0 0 1 26.6033 10.579)'>
<use x='20.007947' y='425.602067' xlink:href='#g11-49'/>
</g>
<path d='M76.7031 428.58985V422.61329' stroke='#000' fill='none' stroke-width='.79701' stroke-miterlimit='10'/>
<g transform='matrix(1 0 0 1 54.9501 10.475)'>
<use x='20.007947' y='425.602067' xlink:href='#g11-50'/>
</g>
<path d='M105.0469 428.58985V422.61329' stroke='#000' fill='none' stroke-width='.79701' stroke-miterlimit='10'/>
<g transform='matrix(1 0 0 1 83.2971 10.475)'>
<use x='20.007947' y='425.602067' xlink:href='#g11-51'/>
</g>
<path d='M133.3949 428.58985V422.61329' stroke='#000' fill='none' stroke-width='.79701' stroke-miterlimit='10'/>
<g transform='matrix(1 0 0 1 111.6441 10.579)'>
<use x='20.007947' y='425.602067' xlink:href='#g11-52'/>
</g>
<path d='M161.7419 428.58985V422.61329' stroke='#000' fill='none' stroke-width='.79701' stroke-miterlimit='10'/>
<g transform='matrix(1 0 0 1 139.9901 10.475)'>
<use x='20.007947' y='425.602067' xlink:href='#g11-53'/>
</g>
<path d='M190.0899 428.58985V422.61329' stroke='#000' fill='none' stroke-width='.79701' stroke-miterlimit='10'/>
<g transform='matrix(1 0 0 1 168.3371 10.475)'>
<use x='20.007947' y='425.602067' xlink:href='#g11-54'/>
</g>
<path d='M218.4379 428.58985V422.61329' stroke='#000' fill='none' stroke-width='.79701' stroke-miterlimit='10'/>
<g transform='matrix(1 0 0 1 196.6841 10.475)'>
<use x='20.007947' y='425.602067' xlink:href='#g11-55'/>
</g>
<path d='M246.7809 428.58985V422.61329' stroke='#000' fill='none' stroke-width='.79701' stroke-miterlimit='10'/>
<g transform='matrix(1 0 0 1 225.0311 10.475)'>
<use x='20.007947' y='425.602067' xlink:href='#g11-56'/>
</g>
<path d='M275.1289 428.58985V422.61329' stroke='#000' fill='none' stroke-width='.79701' stroke-miterlimit='10'/>
<g transform='matrix(1 0 0 1 253.3781 10.475)'>
<use x='20.007947' y='425.602067' xlink:href='#g11-57'/>
</g>
</g>
</svg>